LP	X		Y		RHO
1.	5.54827		14.18958	2.795
2.	8.13349		46.88345	2.787
3.	1.68035		32.27485	2.753
4.	6.90603		45.93860	2.713
5.	9.57610		43.39702	2.748
6.	4.99039		41.59520	2.764
7.	6.83370		37.62658	2.720
8.	6.07532		30.91983	2.711
9.	9.53917		17.42698	2.795
10.	4.63179		16.58223	2.830
11.	8.81497		32.40303	2.782
12.	7.12394		31.02725	2.822
13.	1.97516		15.00626	2.719
14.	8.47468		29.04111	2.826
15.	0.12604		38.05383	2.768
16.	6.78945		14.74502	2.792
17.	3.82397		41.92724	2.738
18.	5.12894		41.25828	2.757
19.	1.79205		48.10297	2.792
20.	7.90063		42.95755	2.808
21.	0.91708		31.39592	2.726
22.	2.41859		16.25996	2.766
23.	5.06027		10.87649	2.731
24.	4.65011		40.24873	2.782
25.	1.87872		23.83709	2.816
26.	3.32682		48.21406	2.746
27.	7.11081		33.57128	2.800
28.	9.76104		30.35218	2.726
29.	0.87191		14.88784	2.802
30.	3.05490		11.34770	2.834
31.	6.70156		26.37379	2.813
32.	3.23466		49.48241	2.703
33.	7.63390		20.36409	2.734
34.	9.38353		31.14322	2.765
35.	0.69826		25.43748	2.713
36.	7.37114		11.31108	2.746
37.	8.22932		46.91153	2.826
38.	3.52000		21.52989	2.729
39.	7.41661		13.41929	2.800
40.	7.74224		17.33665	2.774
41.	4.96750		37.11997	2.704
42.	3.62377		31.85492	2.732
43.	7.71874		36.35090	2.725
44.	4.81277		26.38478	2.735
45.	8.91598		37.84143	2.716
46.	8.19269		47.37297	2.817
47.	9.80316		35.58306	2.728
48.	5.89251		17.00949	2.737
49.	3.44798		20.45808	2.714
50.	1.50151		26.98294	2.832
